<svg xmlns="http://www.w3.org/2000/svg" width="1174.17" height="812.642" viewBox="0 0 1174.17 812.642">
  <g id="Group_860" data-name="Group 860" transform="translate(90.719 144.242)">
    <path id="Path_671" data-name="Path 671" d="M-89.219,576.834H94.193a28,28,0,0,0,28-28h0V-142.742" fill="none" stroke="#d7d7d7" stroke-linecap="round" stroke-miterlimit="10" stroke-width="3" stroke-dasharray="0 8"/>
    <path id="Path_672" data-name="Path 672" d="M118.106,299.94v-.334a28,28,0,0,0-28-28H42.579a28,28,0,0,1-28-28V187.362a28,28,0,0,0-28-28H-87.853" fill="none" stroke="#d7d7d7" stroke-linecap="round" stroke-miterlimit="10" stroke-width="3" stroke-dasharray="0 8"/>
    <path id="Path_674" data-name="Path 674" d="M125.188,444.553h0A15.257,15.257,0,0,1,140.444,429.3H264.313A15.258,15.258,0,0,0,279.57,414.04V315.6a15.256,15.256,0,0,1,15.257-15.256H604.168a16,16,0,0,1,16,16V643.2" fill="none" stroke="#d7d7d7" stroke-linecap="round" stroke-miterlimit="10" stroke-width="3" stroke-dasharray="0 8"/>
    <path id="Path_674-2" data-name="Path 674" d="M125.188,105.615h0a15.257,15.257,0,0,1,15.256-15.257H264.313A15.257,15.257,0,0,0,279.57,75.1V-23.34A15.257,15.257,0,0,1,294.827-38.6h30.8" fill="none" stroke="#d7d7d7" stroke-linecap="round" stroke-miterlimit="10" stroke-width="3" stroke-dasharray="0 8"/>
    <path id="Path_674-3" data-name="Path 674" d="M622.514,418.436h0A15.256,15.256,0,0,1,637.77,403.18H761.639A15.256,15.256,0,0,0,776.9,387.923V289.482a15.258,15.258,0,0,1,15.257-15.256h273.8a16,16,0,0,1,16,16V666.9" fill="none" stroke="#d7d7d7" stroke-linecap="round" stroke-miterlimit="10" stroke-width="3" stroke-dasharray="0 8"/>
  </g>
</svg>
