<svg xmlns="http://www.w3.org/2000/svg" width="242.106" height="132.322" viewBox="0 0 242.106 132.322">
  <g id="Group_48" data-name="Group 48" transform="translate(-401.56 -2262.72)">
    <g id="icon_1" data-name="icon 1" transform="translate(401.56 2262.72)">
      <rect id="Rectangle_3" data-name="Rectangle 3" width="100.094" height="100.352" fill="#e1e1e1"/>
      <g id="Rectangle_2" data-name="Rectangle 2" transform="translate(8.673 8.697)" fill="#fff" stroke="#959595" stroke-width="1">
        <rect width="82.769" height="82.987" stroke="none"/>
        <rect x="0.5" y="0.5" width="81.769" height="81.987" fill="none"/>
      </g>
      <text id="account_circle" transform="translate(144.158 98.189)" fill="#141823" font-size="96" font-family="MaterialIcons-Regular, Material Icons"><tspan x="0" y="0">account_circle</tspan></text>
    </g>
    <g id="_8_dp" data-name="8 dp" transform="translate(501.65 2367.407)">
      <g id="Shape_1_copy_2" data-name="Shape 1 copy 2" transform="translate(0 1.231)" fill="none" stroke="#959595" stroke-width="1">
        <rect width="1.071" height="11.792" stroke="none"/>
        <rect x="0.5" y="0.5" width="0.071" height="10.792" fill="none"/>
      </g>
      <g id="Shape_1_copy_3" data-name="Shape 1 copy 3" transform="translate(40.859)" fill="none" stroke="#959595" stroke-width="1">
        <rect width="1.071" height="11.792" stroke="none"/>
        <rect x="0.5" y="0.5" width="0.071" height="10.792" fill="none"/>
      </g>
      <g id="Shape_2_copy" data-name="Shape 2 copy" transform="translate(0.653 6.251)" fill="none" stroke="#959595" stroke-width="1">
        <rect width="41.04" height="1.231" stroke="none"/>
        <rect x="0.5" y="0.5" width="40.04" height="0.231" fill="none"/>
      </g>
      <text id="_8" data-name="8" transform="translate(16.355 24.635)" fill="#141823" font-size="14" font-family="Lato-Regular, Lato"><tspan x="0" y="0">8</tspan></text>
    </g>
    <g id="icon_2" data-name="icon 2" transform="translate(543.572 2262.72)">
      <rect id="Rectangle_3-2" data-name="Rectangle 3" width="100.094" height="100.352" fill="#e1e1e1"/>
      <g id="Rectangle_2-2" data-name="Rectangle 2" transform="translate(8.66 8.697)" fill="#fff" stroke="#959595" stroke-width="1">
        <rect width="82.769" height="82.987" stroke="none"/>
        <rect x="0.5" y="0.5" width="81.769" height="81.987" fill="none"/>
      </g>
      <path id="Path_162" data-name="Path 162" d="M24-32.062q8.813,12.938,24,12.938T72-32.062q-.187-5.25-8.437-8.812A39.349,39.349,0,0,0,48-44.437a40.241,40.241,0,0,0-15.562,3.469Q24.188-37.5,24-32.062ZM56.438-72.375A11.532,11.532,0,0,0,48-75.937a11.532,11.532,0,0,0-8.437,3.563A11.532,11.532,0,0,0,36-63.937,11.532,11.532,0,0,0,39.563-55.5,11.532,11.532,0,0,0,48-51.937,11.532,11.532,0,0,0,56.438-55.5,11.532,11.532,0,0,0,60-63.937,11.532,11.532,0,0,0,56.438-72.375Zm-36.75-3.75A38.621,38.621,0,0,1,48-87.937,38.466,38.466,0,0,1,76.219-76.219,38.466,38.466,0,0,1,87.938-48,38.466,38.466,0,0,1,76.219-19.781,38.466,38.466,0,0,1,48-8.062,38.466,38.466,0,0,1,19.781-19.781,38.466,38.466,0,0,1,8.063-48,38.311,38.311,0,0,1,19.688-76.125Z" transform="translate(2.146 98.189)" fill="#141823"/>
      <path id="Path_161" data-name="Path 161" d="M24-32.062q8.813,12.938,24,12.938T72-32.062q-.187-5.25-8.437-8.812A39.349,39.349,0,0,0,48-44.437a40.241,40.241,0,0,0-15.562,3.469Q24.188-37.5,24-32.062ZM56.438-72.375A11.532,11.532,0,0,0,48-75.937a11.532,11.532,0,0,0-8.437,3.563A11.532,11.532,0,0,0,36-63.937,11.532,11.532,0,0,0,39.563-55.5,11.532,11.532,0,0,0,48-51.937,11.532,11.532,0,0,0,56.438-55.5,11.532,11.532,0,0,0,60-63.937,11.532,11.532,0,0,0,56.438-72.375Zm-36.75-3.75A38.621,38.621,0,0,1,48-87.937,38.466,38.466,0,0,1,76.219-76.219,38.466,38.466,0,0,1,87.938-48,38.466,38.466,0,0,1,76.219-19.781,38.466,38.466,0,0,1,48-8.062,38.466,38.466,0,0,1,19.781-19.781,38.466,38.466,0,0,1,8.063-48,38.311,38.311,0,0,1,19.688-76.125Z" transform="translate(-139.854 98.189)" fill="#141823"/>
    </g>
  </g>
</svg>
