[
  {
    "states": [
      {
        "status": "default",
        "how_to_use": "The default state of a checkbox is the unchecked state. Except if there is an opt-out, where it should be checked.",
        "code": [
          "<div class='form-group'>",
          "   <div class='margin-bottom-s'><strong>Select the distributions you like the most</strong></div> ",
          "   <div class='form-check'>",
          "     <input class='form-check-input eos-checkbox' type='checkbox' id='option-1'>",
          "     <label class='form-check-label' for='option-1'>",
          "       openSUSE",
          "     </label>",
          "   </div>",
          "   <div class='form-check'>",
          "     <input class='form-check-input eos-checkbox' type='checkbox' id='option-2'>",
          "     <label class='form-check-label' for='option-2'>",
          "       Ubuntu",
          "     </label>",
          "   </div>",
          "   <div class='form-check'>",
          "     <input class='form-check-input eos-checkbox' type='checkbox' id='option-3'>",
          "     <label class='form-check-label' for='option-3'>",
          "       Fedora",
          "     </label>",
          "   </div>",
          "</div>"
        ]
      },
      {
        "status": "focused",
        "how_to_use": "A focused state communicates when a user has highlighted a checkbox using a keyboard or is currently interacting with it.",
        "code": [
          "<div class='form-group'>",
          "   <div class='margin-bottom-s'><strong>Select the distributions you like the most</strong></div> ",
          "   <div class='form-check'>",
          "       <input class='form-check-input eos-checkbox' type='checkbox' id='option-1'>",
          "       <label class='form-check-label' for='option-1'>",
          "         openSUSE",
          "       </label>",
          "   </div>",
          "   <div class='form-check'>",
          "       <input class='form-check-input eos-checkbox' type='checkbox' id='option-2' autofocus>",
          "       <label class='form-check-label' for='option-2'>",
          "         Ubuntu",
          "       </label>",
          "   </div>",
          "   <div class='form-check'>",
          "       <input class='form-check-input eos-checkbox' type='checkbox' id='option-3'>",
          "       <label class='form-check-label' for='option-3'>",
          "         Fedora",
          "       </label>",
          "   </div>",
          "</div>"
        ]
      },
      {
        "status": "checked",
        "how_to_use": "The selected state of a checkbox is the checked state. This state can also be added using the checked attribute to the checkbox.",
        "code": [
          "<div class='form-group'>",
          "   <div class='margin-bottom-s'><strong>Select the distributions you like the most</strong></div> ",
          "   <div class='form-check'>",
          "       <input class='form-check-input eos-checkbox' type='checkbox' id='option-1'>",
          "       <label class='form-check-label' for='option-1'>",
          "         openSUSE",
          "       </label>",
          "   </div>",
          "   <div class='form-check'>",
          "       <input class='form-check-input eos-checkbox' type='checkbox' id='option-2' checked>",
          "       <label class='form-check-label' for='option-2'>",
          "         Ubuntu",
          "       </label>",
          "   </div>",
          "   <div class='form-check'>",
          "       <input class='form-check-input eos-checkbox' type='checkbox' id='option-3'>",
          "       <label class='form-check-label' for='option-3'>",
          "         Fedora",
          "       </label>",
          "   </div>",
          "</div>"
        ]
      },
      {
        "status": "disabled",
        "how_to_use": "The disabled state prevents the user from interacting with a checkbox until certain conditions are met. This state is added to the checkbox using the disabled attribute. When possible, show an alert or error message to inform users why it is disabled.",
        "code": [
          "<div class='form-group'>",
          "   <div class='margin-bottom-s'><strong>Select the distributions you like the most</strong></div> ",
          "   <div class='form-check'>",
          "       <input class='form-check-input eos-checkbox' type='checkbox' id='option-1' disabled>",
          "       <label class='form-check-label' for='option-1'>",
          "         openSUSE",
          "       </label>",
          "   </div>",
          "   <div class='form-check'>",
          "       <input class='form-check-input eos-checkbox' type='checkbox' id='option-2' disabled>",
          "       <label class='form-check-label' for='option-2'>",
          "         Ubuntu",
          "       </label>",
          "   </div>",
          "   <div class='form-check'>",
          "       <input class='form-check-input eos-checkbox' type='checkbox' id='option-3' disabled checked>",
          "       <label class='form-check-label' for='option-3'>",
          "         Fedora",
          "       </label>",
          "   </div>",
          "</div>"
        ]
      },
      {
        "status": "error",
        "how_to_use": "When possible, show an error message to inform users why the checkbox needs to be selected.",
        "code": [
          "<div class='form-group'>",
          "   <div class='margin-bottom-s'><strong>Select the distributions you like the most</strong></div> ",
          "   <div class='form-check'>",
          "       <input class='form-check-input eos-checkbox' type='checkbox' id='option-1'>",
          "       <label class='form-check-label' for='option-1'>",
          "         openSUSE",
          "       </label>",
          "   </div>",
          "   <div class='form-check'>",
          "       <input class='form-check-input eos-checkbox' type='checkbox' id='option-2'>",
          "       <label class='form-check-label' for='option-2'>",
          "         Ubuntu",
          "       </label>",
          "   </div>",
          "   <div class='form-check'>",
          "      <input class='form-check-input eos-checkbox' type='checkbox' id='option-3'>",
          "      <label class='form-check-label' for='option-3'>",
          "         Fedora",
          "      </label>",
          "   </div>",
          "   <span class='error-msg'>Please choose an option from the list.</span>",
          "</div>"
        ]
      },
      {
        "status": "inline",
        "how_to_use": "Use the .form-check-inline class in the .form-check wrapper div to group checkboxes horizontally.",
        "code": [
          "<div class='form-group'>",
          "   <div class='margin-bottom-s'><strong>Select the distributions you like the most</strong></div> ",
          "   <div class='form-check form-check-inline'>",
          "       <input class='form-check-input eos-checkbox' type='checkbox' id='option-1'>",
          "       <label class='form-check-label' for='option-1'>",
          "         openSUSE",
          "       </label>",
          "   </div>",
          "   <div class='form-check form-check-inline'>",
          "       <input class='form-check-input eos-checkbox' type='checkbox' id='option-2'>",
          "       <label class='form-check-label' for='option-2'>",
          "         Ubuntu",
          "       </label>",
          "   </div>",
          "   <div class='form-check form-check-inline'>",
          "       <input class='form-check-input eos-checkbox' type='checkbox' id='option-3'>",
          "       <label class='form-check-label' for='option-3'>",
          "         Fedora",
          "       </label>",
          "   </div>",
          "</div>"
        ]
      }
    ]
  }
]
