[
  {
    "states": [
      {
        "status": "default",
        "how_to_use": "This is the default state of the element.",
        "code": [
          "<div class='form-group'>",
          "    <label for='file-input'>Example file input</label>",
          "    <input type='file' class='form-control-file' id='file-input'>",
          "</div>"
        ]
      },
      {
        "status": "focused",
        "how_to_use": "A focused state communicates when a user has highlighted an element using a keyboard or currently interacting with the field.",
        "code": [
          "<div class='form-group'>",
          "    <label for='file-input'>Example file input</label>",
          "    <input type='file' class='form-control-file' id='file-input' focused>",
          "</div>"
        ]
      },
      {
        "status": "disabled",
        "how_to_use": "This prevents the user from interacting with a field until certain conditions are met. When possible, show an alert or error message to inform users why it is disabled.",
        "code": [
          "<div class='form-group'>",
          "    <label for='file-input'>Example file input</label>",
          "    <input type='file' class='form-control-file' id='file-input' disabled>",
          "</div>"
        ]
      },
      {
        "status": "error",
        "how_to_use": "Use it to It indicates there was an error with the field on submission. Only affected fields should be highlighted in red.",
        "code": [
          "<div class='form-group'>",
          "   <label for='file-input'>Example file input</label>",
          "   <input type='file' class='form-control-file error' id='file-input'>",
          "   <span class='error-msg'>The file format is not supported.</span>",
          "</div>"
        ]
      },
      {
        "status": "approved-field",
        "how_to_use": "Indicates that required field has a valid formate and content.",
        "code": [
          "<div class='form-group'>",
          "    <label for='file-input'>Example file input</label>",
          "    <input type='file' class='form-control-file approved' id='file-input'>",
          "</div>"
        ]
      },
      {
        "status": "optional",
        "how_to_use": "Use (optional) to indicate non-mandatory fields rather than indicating only mandatory fields. This practice has proved to reduce stress in users when filling out long forms.",
        "code": [
          "<div class='form-group'>",
          "    <label for='file-input'>Example file input <span class='optional-label'>(optional)</span></label>",
          "    <input type='file' class='form-control-file' id='file-input'>",
          "</div>"
        ]
      }
    ]
  }
]
