[
  {
    "states": [
      {
        "status": "default",
        "how_to_use": "",
        "code": [
          "<nav class='pagination-wrap' aria-label='Page navigation example'>",
          "  <ul class='pagination'>",
          "    <li class='page-item'><a class='page-link' href=''>Prev</a></li>",
          "    <li class='page-item'><a class='page-link' href=''>1</a></li>",
          "    <li class='page-item active'><a class='page-link' href=''>2</a></li>",
          "    <li class='page-item'><a class='page-link' href=''>3</a></li>",
          "    <li class='page-item'><a class='page-link' href=''>Next</a></li>",
          "  </ul>",
          "</nav>"
        ]
      },
      {
        "status": "with icons",
        "how_to_use": "When space is limited, use icons to show next and previous buttons, always adding tooltips to provide more information to the user.",
        "code": [
          "<nav class='pagination-wrap' aria-label='Page navigation example'>",
          "  <ul class='pagination'>",
          "    <li class='page-item'>",
          "      <a class='page-link' href='#' aria-label='Previous' data-toggle='tooltip' title='Previous'>",
          "        <i class='eos-icons eos-18 icon-reset' >keyboard_arrow_left</i>",
          "      </a>",
          "    </li>",
          "    <li class='page-item'><a class='page-link' href='#'>1</a></li>",
          "    <li class='page-item'><a class='page-link' href='#'>2</a></li>",
          "    <li class='page-item'><a class='page-link' href='#'>3</a></li>",
          "    <li class='page-item'>",
          "      <a class='page-link' href='#' aria-label='Next' data-toggle='tooltip' title='Next'>",
          "        <i class='eos-icons eos-18 icon-reset'>keyboard_arrow_right</i>",
          "      </a>",
          "    </li>",
          "  </ul>",
          "</nav>"
        ]
      },
      {
        "status": "disabled",
        "how_to_use": "",
        "code": [
          "<nav class='pagination-wrap' aria-label='Page navigation example'>",
          "  <ul class='pagination'>",
          "    <li class='page-item'><a class='page-link' href=''>Prev</a></li>",
          "    <li class='page-item'><a class='page-link' href='#'>1</a></li>",
          "    <li class='page-item disabled'><a class='page-link' href='#'>2</a></li>",
          "    <li class='page-item'><a class='page-link' href='#'>3</a></li>",
          "    <li class='page-item'><a class='page-link' href=''>Next</a></li>",
          "  </ul>",
          "</nav>"
        ]
      },
      {
        "status": "additional controls",
        "how_to_use": "",
        "code": [
          "<nav class='pagination-wrap' aria-label='Page navigation example'>",
          " <div class='pagination-count'>",
          "   Total <strong>93 items</strong>",
          " </div>",
          "  <ul class='pagination'>",
          "    <li class='page-item'><a class='page-link' href='#'>Prev</a></li>",
          "    <li class='page-item'><a class='page-link' href='#'>1</a></li>",
          "    <li class='page-item active'><a class='page-link' href='#'>2</a></li>",
          "    <li class='page-item'><a class='page-link' href='#'>3</a></li>",
          "    <li class='page-item'><a class='page-link' href='#'>4</a></li>",
          "    <li class='page-item'><a class='page-link' href='#'>Next</a></li>",
          "  </ul>",
          "  <div class='pagination-actions margin-right-m'>",
          "    <div class='goto-field'>",
          "      Go to",
          "      <input class='form-control' id='username' type='text'>",
          "    </div>",
          "    <div class='pagination-text'>",
          "      Items per page",
          "    </div>",
          "    <div class='dropdown'>",
          "      <button class='btn btn-sm btn-secondary dropdown-toggle' type='button' data-toggle='dropdown'>",
          "        <i class='eos-icons eos-18'>keyboard_arrow_down</i>",
          "        10",
          "      </button>",
          "      <div class='dropdown-menu' aria-labelledby='dropdownMenuButton'>",
          "        <a class='dropdown-item' href='#'>10</a>",
          "        <a class='dropdown-item' href='#'>25</a>",
          "        <a class='dropdown-item' href='#'>50</a>",
          "        <a class='dropdown-item' href='#'>100</a>",
          "      </div>",
          "    </div>",
          "  </div>",
          "</nav>"
        ]
      },
      {
        "status": "Control placement",
        "how_to_use": "",
        "code": [
          "<nav class='pagination-wrap justify-content-end' aria-label='Page navigation example'>",
          "  <ul class='pagination'>",
          "    <li class='page-item'>",
          "      <a class='page-link' href='#' aria-label='Previous' data-toggle='tooltip' title='Previous'>",
          "        <i class='eos-icons eos-18 icon-reset'>keyboard_arrow_left</i>",
          "      </a>",
          "    </li>",
          "    <li class='page-item'>",
          "      <a class='page-link' href='#' aria-label='Previous' data-toggle='tooltip' title='Next'>",
          "        <i class='eos-icons eos-18 icon-reset'>keyboard_arrow_right</i>",
          "      </a>",
          "    </li>",
          "  </ul>",
          "  <div class='pagination-actions margin-right-m'>",
          "    <div class='goto-field'>",
          "      Go to",
          "      <input class='form-control' id='username' type='text'>",
          "    </div>",
          "    <div class='pagination-text'>",
          "      Items per page",
          "    </div>",
          "    <div class='dropdown'>",
          "      <button class='btn btn-sm btn-secondary dropdown-toggle' type='button' data-toggle='dropdown'>",
          "        <i class='eos-icons eos-18'>keyboard_arrow_down</i>",
          "        10",
          "      </button>",
          "      <div class='dropdown-menu' aria-labelledby='dropdownMenuButton'>",
          "        <a class='dropdown-item' href='#'>10</a>",
          "        <a class='dropdown-item' href='#'>25</a>",
          "        <a class='dropdown-item' href='#'>50</a>",
          "        <a class='dropdown-item' href='#'>100</a>",
          "      </div>",
          "    </div>",
          "  </div>",
          "</nav>",
          "<div class='card clearfix eos-table-card'>",
          " <div class='card-header'>",
          "   <h4 class='mb-0'>Default table</h4>",
          "   <div class='eos-table-card-controls'>",
          "     <ul class='list-inline eos-table-actions'>",
          "       <li class='list-inline-item'>",
          "         <a>",
          "           <i class='eos-icons eos-18 eos-dark' data-toggle='tooltip' title='Search'>",
          "             search",
          "           </i>",
          "         </a>",
          "       </li>",
          "       <li class='list-inline-item'>",
          "         <a>",
          "           <i class='eos-icons eos-18 eos-dark' data-toggle='tooltip' title='File download'>",
          "             file_download",
          "           </i>",
          "          </a>",
          "       </li>",
          "       <li class='list-inline-item'>",
          "         <a>",
          "           <i class='eos-icons eos-18 eos-dark' data-toggle='tooltip' title='Settings'>",
          "             settings",
          "           </i>",
          "         </a>",
          "       </li>",
          "       <li class='list-inline-item'>",
          "         <a>",
          "           <i class='eos-icons eos-18 eos-dark' data-toggle='tooltip' title='Delete'>",
          "             delete",
          "           </i>",
          "         </a>",
          "       </li>",
          "     </ul>",
          "   </div>",
          "  </div>",
          "  <div class='table-responsive'>",
          "     <table class='table eos-table'>",
          "       <thead>",
          "         <tr>",
          "           <th scope='col'>ID</th>",
          "           <th scope='col'>Company</th>",
          "           <th scope='col'>Status</th>",
          "           <th scope='col' colspan='2'>Active</th>",
          "         </tr>",
          "       </thead>",
          "       <tbody>",
          "         <tr>",
          "           <td>",
          "             <small>390</small>",
          "           </td>",
          "           <td>",
          "             SUSE Product Design System",
          "           </td>",
          "           <td>",
          "             <span class='badge badge-pill badge-success'>Active</span>",
          "           </td>",
          "           <td>",
          "             <div class='form-group'>",
          "               <div class='form-check custom-switch'>",
          "                 <input type='checkbox' class='custom-control-input' id='customSwitch1' checked>",
          "                 <label class='custom-control-label' for='customSwitch1'></label>",
          "               </div>",
          "           </div>",
          "           </td>",
          "           <td class='text-right'>",
          "             <div class='dropdown'>",
          "               <a role='button' data-toggle='dropdown' aria-haspopup='true' aria-expanded='false'>",
          "                 <i class='eos-icons eos-18' data-toggle='tooltip' title='More'>more_vert</i>",
          "               </a>",
          "               <div class='dropdown-menu dropdown-menu-right dropdown-menu-arrow'>",
          "                 <a href='' class='dropdown-item'>",
          "                  <i class='eos-icons eos-18'>create</i>",
          "                  Edit entry",
          "                 </a>",
          "                 <a href='' class='dropdown-item'>",
          "                  <i class='eos-icons eos-18'>remove_circle</i>",
          "                  Delete product",
          "                 </a>",
          "               </div>",
          "             </div>",
          "           </td>",
          "         </tr>",
          "         <tr>",
          "           <td>",
          "             <small>470</small>",
          "           </td>",
          "           <td>",
          "             SUSE Enterprise storage",
          "           </td>",
          "           <td>",
          "             <span class='badge badge-pill badge-danger'>Expired</span>",
          "           </td>",
          "           <td>",
          "             <div class='form-group'>",
          "               <div class='form-check custom-switch'>",
          "                 <input type='checkbox' class='custom-control-input' id='customSwitch1'>",
          "                 <label class='custom-control-label' for='customSwitch1'></label>",
          "               </div>",
          "           </div>",
          "           </td>",
          "           <td class='text-right'>",
          "             <div class='dropdown'>",
          "               <a role='button' data-toggle='dropdown' aria-haspopup='true' aria-expanded='false'>",
          "                 <i class='eos-icons eos-18' data-toggle='tooltip' title='More'>more_vert</i>",
          "               </a>",
          "               <div class='dropdown-menu dropdown-menu-right dropdown-menu-arrow'>",
          "                 <a href='' class='dropdown-item'>",
          "                  <i class='eos-icons eos-18'>create</i>",
          "                  Edit entry",
          "                 </a>",
          "                 <a href='' class='dropdown-item'>",
          "                  <i class='eos-icons eos-18'>remove_circle</i>",
          "                  Delete product",
          "                 </a>",
          "               </div>",
          "             </div>",
          "           </td>",
          "         </tr>",
          "         <tr>",
          "           <td>",
          "             <small>470</small>",
          "           </td>",
          "           <td>",
          "             SUSE Linux Enterprise Server for SAP Applica­tions",
          "           </td>",
          "           <td>",
          "             <span class='badge badge-pill badge-warning'>About to expire</span>",
          "           </td>",
          "           <td>",
          "             <div class='form-group'>",
          "               <div class='form-check custom-switch'>",
          "                 <input type='checkbox' class='custom-control-input' id='customSwitch1'>",
          "                 <label class='custom-control-label' for='customSwitch1'></label>",
          "               </div>",
          "           </div>",
          "           </td>",
          "           <td class='text-right'>",
          "             <div class='dropdown'>",
          "               <a role='button' data-toggle='dropdown' aria-haspopup='true' aria-expanded='false'>",
          "                 <i class='eos-icons eos-18' data-toggle='tooltip' title='More'>more_vert</i>",
          "               </a>",
          "               <div class='dropdown-menu dropdown-menu-right dropdown-menu-arrow'>",
          "                 <a href='' class='dropdown-item'>",
          "                  <i class='eos-icons eos-18'>create</i>",
          "                  Edit entry",
          "                 </a>",
          "                 <a href='' class='dropdown-item'>",
          "                  <i class='eos-icons eos-18'>remove_circle</i>",
          "                  Delete product",
          "                 </a>",
          "               </div>",
          "             </div>",
          "           </td>",
          "         </tr>",
          "         <tr>",
          "           <td>",
          "             <small>470</small>",
          "           </td>",
          "           <td>",
          "             SUSE Manager Server",
          "           </td>",
          "           <td>",
          "             <span class='badge badge-pill badge-danger'>Expired</span>",
          "           </td>",
          "           <td>",
          "             <div class='form-group'>",
          "               <div class='form-check custom-switch'>",
          "                 <input type='checkbox' class='custom-control-input' id='customSwitch1' checked>",
          "                 <label class='custom-control-label' for='customSwitch1'></label>",
          "               </div>",
          "           </div>",
          "           </td>",
          "           <td class='text-right'>",
          "             <div class='dropdown'>",
          "               <a role='button' data-toggle='dropdown' aria-haspopup='true' aria-expanded='false'>",
          "                 <i class='eos-icons eos-18' data-toggle='tooltip' title='More'>more_vert</i>",
          "               </a>",
          "               <div class='dropdown-menu dropdown-menu-right dropdown-menu-arrow'>",
          "                 <a href='' class='dropdown-item'>",
          "                  <i class='eos-icons eos-18'>create</i>",
          "                  Edit entry",
          "                 </a>",
          "                 <a href='' class='dropdown-item'>",
          "                  <i class='eos-icons eos-18'>remove_circle</i>",
          "                  Delete product",
          "                 </a>",
          "               </div>",
          "             </div>",
          "           </td>",
          "         </tr>",
          "         <tr>",
          "           <td>",
          "             <small>470</small>",
          "           </td>",
          "           <td>",
          "             SUSE Cloud Application Platform",
          "           </td>",
          "           <td>",
          "             <span class='badge badge-pill badge-secondary'>Inactive</span>",
          "           </td>",
          "           <td>",
          "             <div class='form-group'>",
          "               <div class='form-check custom-switch'>",
          "                 <input type='checkbox' class='custom-control-input' id='customSwitch1'>",
          "                 <label class='custom-control-label' for='customSwitch1'></label>",
          "               </div>",
          "           </div>",
          "           </td>",
          "           <td class='text-right'>",
          "             <div class='dropdown'>",
          "               <a role='button' data-toggle='dropdown' aria-haspopup='true' aria-expanded='false'>",
          "                 <i class='eos-icons eos-18'>more_vert</i>",
          "               </a>",
          "               <div class='dropdown-menu dropdown-menu-right dropdown-menu-arrow'>",
          "                 <a href='' class='dropdown-item'>",
          "                  <i class='eos-icons eos-18'>create</i>",
          "                  Edit entry",
          "                 </a>",
          "                 <a href='' class='dropdown-item'>",
          "                  <i class='eos-icons eos-18'>remove_circle</i>",
          "                  Delete product",
          "                 </a>",
          "               </div>",
          "             </div>",
          "           </td>",
          "         </tr>",
          "         <tr>",
          "           <td>",
          "             <small>390</small>",
          "           </td>",
          "           <td>",
          "             SUSE Product Design System",
          "           </td>",
          "           <td>",
          "             <span class='badge badge-pill badge-success'>Active</span>",
          "           </td>",
          "           <td>",
          "             <div class='form-group'>",
          "               <div class='form-check custom-switch'>",
          "                 <input type='checkbox' class='custom-control-input' id='customSwitch1' checked>",
          "                 <label class='custom-control-label' for='customSwitch1'></label>",
          "               </div>",
          "           </div>",
          "           </td>",
          "           <td class='text-right'>",
          "             <div class='dropdown'>",
          "               <a role='button' data-toggle='dropdown' aria-haspopup='true' aria-expanded='false'>",
          "                 <i class='eos-icons eos-18' data-toggle='tooltip' title='More'>more_vert</i>",
          "               </a>",
          "               <div class='dropdown-menu dropdown-menu-right dropdown-menu-arrow'>",
          "                 <a href='' class='dropdown-item'>",
          "                  <i class='eos-icons eos-18'>create</i>",
          "                  Edit entry",
          "                 </a>",
          "                 <a href='' class='dropdown-item'>",
          "                  <i class='eos-icons eos-18'>remove_circle</i>",
          "                  Delete product",
          "                 </a>",
          "               </div>",
          "             </div>",
          "           </td>",
          "         </tr>",
          "         <tr>",
          "           <td>",
          "             <small>470</small>",
          "           </td>",
          "           <td>",
          "             SUSE Enterprise storage",
          "           </td>",
          "           <td>",
          "             <span class='badge badge-pill badge-danger'>Expired</span>",
          "           </td>",
          "           <td>",
          "             <div class='form-group'>",
          "               <div class='form-check custom-switch'>",
          "                 <input type='checkbox' class='custom-control-input' id='customSwitch1'>",
          "                 <label class='custom-control-label' for='customSwitch1'></label>",
          "               </div>",
          "           </div>",
          "           </td>",
          "           <td class='text-right'>",
          "             <div class='dropdown'>",
          "               <a role='button' data-toggle='dropdown' aria-haspopup='true' aria-expanded='false'>",
          "                 <i class='eos-icons eos-18' data-toggle='tooltip' title='More'>more_vert</i>",
          "               </a>",
          "               <div class='dropdown-menu dropdown-menu-right dropdown-menu-arrow'>",
          "                 <a href='' class='dropdown-item'>",
          "                  <i class='eos-icons eos-18'>create</i>",
          "                  Edit entry",
          "                 </a>",
          "                 <a href='' class='dropdown-item'>",
          "                  <i class='eos-icons eos-18'>remove_circle</i>",
          "                  Delete product",
          "                 </a>",
          "               </div>",
          "             </div>",
          "           </td>",
          "         </tr>",
          "         <tr>",
          "           <td>",
          "             <small>470</small>",
          "           </td>",
          "           <td>",
          "             SUSE Linux Enterprise Server for SAP Applica­tions",
          "           </td>",
          "           <td>",
          "             <span class='badge badge-pill badge-warning'>About to expire</span>",
          "           </td>",
          "           <td>",
          "             <div class='form-group'>",
          "               <div class='form-check custom-switch'>",
          "                 <input type='checkbox' class='custom-control-input' id='customSwitch1'>",
          "                 <label class='custom-control-label' for='customSwitch1'></label>",
          "               </div>",
          "           </div>",
          "           </td>",
          "           <td class='text-right'>",
          "             <div class='dropdown'>",
          "               <a role='button' data-toggle='dropdown' aria-haspopup='true' aria-expanded='false'>",
          "                 <i class='eos-icons eos-18' data-toggle='tooltip' title='More'>more_vert</i>",
          "               </a>",
          "               <div class='dropdown-menu dropdown-menu-right dropdown-menu-arrow'>",
          "                 <a href='' class='dropdown-item'>",
          "                  <i class='eos-icons eos-18'>create</i>",
          "                  Edit entry",
          "                 </a>",
          "                 <a href='' class='dropdown-item'>",
          "                  <i class='eos-icons eos-18'>remove_circle</i>",
          "                  Delete product",
          "                 </a>",
          "               </div>",
          "             </div>",
          "           </td>",
          "         </tr>",
          "         <tr>",
          "           <td>",
          "             <small>470</small>",
          "           </td>",
          "           <td>",
          "             SUSE Manager Server",
          "           </td>",
          "           <td>",
          "             <span class='badge badge-pill badge-danger'>Expired</span>",
          "           </td>",
          "           <td>",
          "             <div class='form-group'>",
          "               <div class='form-check custom-switch'>",
          "                 <input type='checkbox' class='custom-control-input' id='customSwitch1' checked>",
          "                 <label class='custom-control-label' for='customSwitch1'></label>",
          "               </div>",
          "           </div>",
          "           </td>",
          "           <td class='text-right'>",
          "             <div class='dropdown'>",
          "               <a role='button' data-toggle='dropdown' aria-haspopup='true' aria-expanded='false'>",
          "                 <i class='eos-icons eos-18' data-toggle='tooltip' title='More'>more_vert</i>",
          "               </a>",
          "               <div class='dropdown-menu dropdown-menu-right dropdown-menu-arrow'>",
          "                 <a href='' class='dropdown-item'>",
          "                  <i class='eos-icons eos-18'>create</i>",
          "                  Edit entry",
          "                 </a>",
          "                 <a href='' class='dropdown-item'>",
          "                  <i class='eos-icons eos-18'>remove_circle</i>",
          "                  Delete product",
          "                 </a>",
          "               </div>",
          "             </div>",
          "           </td>",
          "         </tr>",
          "         <tr>",
          "           <td>",
          "             <small>470</small>",
          "           </td>",
          "           <td>",
          "             SUSE Cloud Application Platform",
          "           </td>",
          "           <td>",
          "             <span class='badge badge-pill badge-secondary'>Inactive</span>",
          "           </td>",
          "           <td>",
          "             <div class='form-group'>",
          "               <div class='form-check custom-switch'>",
          "                 <input type='checkbox' class='custom-control-input' id='customSwitch1'>",
          "                 <label class='custom-control-label' for='customSwitch1'></label>",
          "               </div>",
          "           </div>",
          "           </td>",
          "           <td class='text-right'>",
          "             <div class='dropdown'>",
          "               <a role='button' data-toggle='dropdown' aria-haspopup='true' aria-expanded='false'>",
          "                 <i class='eos-icons eos-18' data-toggle='tooltip' title='More'>more_vert</i>",
          "               </a>",
          "               <div class='dropdown-menu dropdown-menu-right dropdown-menu-arrow'>",
          "                 <a href='' class='dropdown-item'>",
          "                  <i class='eos-icons eos-18'>create</i>",
          "                  Edit entry",
          "                 </a>",
          "                 <a href='' class='dropdown-item'>",
          "                  <i class='eos-icons eos-18'>remove_circle</i>",
          "                  Delete product",
          "                 </a>",
          "               </div>",
          "             </div>",
          "           </td>",
          "         </tr>",
          "         <tr>",
          "           <td>",
          "             <small>390</small>",
          "           </td>",
          "           <td>",
          "             SUSE Product Design System",
          "           </td>",
          "           <td>",
          "             <span class='badge badge-pill badge-success'>Active</span>",
          "           </td>",
          "           <td>",
          "             <div class='form-group'>",
          "               <div class='form-check custom-switch'>",
          "                 <input type='checkbox' class='custom-control-input' id='customSwitch1' checked>",
          "                 <label class='custom-control-label' for='customSwitch1'></label>",
          "               </div>",
          "           </div>",
          "           </td>",
          "           <td class='text-right'>",
          "             <div class='dropdown'>",
          "               <a role='button' data-toggle='dropdown' aria-haspopup='true' aria-expanded='false'>",
          "                 <i class='eos-icons eos-18' data-toggle='tooltip' title='More'>more_vert</i>",
          "               </a>",
          "               <div class='dropdown-menu dropdown-menu-right dropdown-menu-arrow'>",
          "                 <a href='' class='dropdown-item'>",
          "                  <i class='eos-icons eos-18'>create</i>",
          "                  Edit entry",
          "                 </a>",
          "                 <a href='' class='dropdown-item'>",
          "                  <i class='eos-icons eos-18'>remove_circle</i>",
          "                  Delete product",
          "                 </a>",
          "               </div>",
          "             </div>",
          "           </td>",
          "         </tr>",
          "         <tr>",
          "           <td>",
          "             <small>470</small>",
          "           </td>",
          "           <td>",
          "             SUSE Enterprise storage",
          "           </td>",
          "           <td>",
          "             <span class='badge badge-pill badge-danger'>Expired</span>",
          "           </td>",
          "           <td>",
          "             <div class='form-group'>",
          "               <div class='form-check custom-switch'>",
          "                 <input type='checkbox' class='custom-control-input' id='customSwitch1'>",
          "                 <label class='custom-control-label' for='customSwitch1'></label>",
          "               </div>",
          "           </div>",
          "           </td>",
          "           <td class='text-right'>",
          "             <div class='dropdown'>",
          "               <a role='button' data-toggle='dropdown' aria-haspopup='true' aria-expanded='false'>",
          "                 <i class='eos-icons eos-18' data-toggle='tooltip' title='More'>more_vert</i>",
          "               </a>",
          "               <div class='dropdown-menu dropdown-menu-right dropdown-menu-arrow'>",
          "                 <a href='' class='dropdown-item'>",
          "                  <i class='eos-icons eos-18'>create</i>",
          "                  Edit entry",
          "                 </a>",
          "                 <a href='' class='dropdown-item'>",
          "                  <i class='eos-icons eos-18'>remove_circle</i>",
          "                  Delete product",
          "                 </a>",
          "               </div>",
          "             </div>",
          "           </td>",
          "         </tr>",
          "         <tr>",
          "           <td>",
          "             <small>470</small>",
          "           </td>",
          "           <td>",
          "             SUSE Linux Enterprise Server for SAP Applica­tions",
          "           </td>",
          "           <td>",
          "             <span class='badge badge-pill badge-warning'>About to expire</span>",
          "           </td>",
          "           <td>",
          "             <div class='form-group'>",
          "               <div class='form-check custom-switch'>",
          "                 <input type='checkbox' class='custom-control-input' id='customSwitch1'>",
          "                 <label class='custom-control-label' for='customSwitch1'></label>",
          "               </div>",
          "           </div>",
          "           </td>",
          "           <td class='text-right'>",
          "             <div class='dropdown'>",
          "               <a role='button' data-toggle='dropdown' aria-haspopup='true' aria-expanded='false'>",
          "                 <i class='eos-icons eos-18' data-toggle='tooltip' title='More'>more_vert</i>",
          "               </a>",
          "               <div class='dropdown-menu dropdown-menu-right dropdown-menu-arrow'>",
          "                 <a href='' class='dropdown-item'>",
          "                  <i class='eos-icons eos-18'>create</i>",
          "                  Edit entry",
          "                 </a>",
          "                 <a href='' class='dropdown-item'>",
          "                  <i class='eos-icons eos-18'>remove_circle</i>",
          "                  Delete product",
          "                 </a>",
          "               </div>",
          "             </div>",
          "           </td>",
          "         </tr>",
          "         <tr>",
          "           <td>",
          "             <small>470</small>",
          "           </td>",
          "           <td>",
          "             SUSE Manager Server",
          "           </td>",
          "           <td>",
          "             <span class='badge badge-pill badge-danger'>Expired</span>",
          "           </td>",
          "           <td>",
          "             <div class='form-group'>",
          "               <div class='form-check custom-switch'>",
          "                 <input type='checkbox' class='custom-control-input' id='customSwitch1' checked>",
          "                 <label class='custom-control-label' for='customSwitch1'></label>",
          "               </div>",
          "           </div>",
          "           </td>",
          "           <td class='text-right'>",
          "             <div class='dropdown'>",
          "               <a role='button' data-toggle='dropdown' aria-haspopup='true' aria-expanded='false'>",
          "                 <i class='eos-icons eos-18' data-toggle='tooltip' title='More'>more_vert</i>",
          "               </a>",
          "               <div class='dropdown-menu dropdown-menu-right dropdown-menu-arrow'>",
          "                 <a href='' class='dropdown-item'>",
          "                  <i class='eos-icons eos-18'>create</i>",
          "                  Edit entry",
          "                 </a>",
          "                 <a href='' class='dropdown-item'>",
          "                  <i class='eos-icons eos-18'>remove_circle</i>",
          "                  Delete product",
          "                 </a>",
          "               </div>",
          "             </div>",
          "           </td>",
          "         </tr>",
          "         <tr>",
          "           <td>",
          "             <small>470</small>",
          "           </td>",
          "           <td>",
          "             SUSE Cloud Application Platform",
          "           </td>",
          "           <td>",
          "             <span class='badge badge-pill badge-secondary'>Inactive</span>",
          "           </td>",
          "           <td>",
          "             <div class='form-group'>",
          "               <div class='form-check custom-switch'>",
          "                 <input type='checkbox' class='custom-control-input' id='customSwitch1'>",
          "                 <label class='custom-control-label' for='customSwitch1'></label>",
          "               </div>",
          "           </div>",
          "           </td>",
          "           <td class='text-right'>",
          "             <div class='dropdown'>",
          "               <a role='button' data-toggle='dropdown' aria-haspopup='true' aria-expanded='false'>",
          "                 <i class='eos-icons eos-18' data-toggle='tooltip' title='More'>more_vert</i>",
          "               </a>",
          "               <div class='dropdown-menu dropdown-menu-right dropdown-menu-arrow'>",
          "                 <a href='' class='dropdown-item'>",
          "                  <i class='eos-icons eos-18'>create</i>",
          "                  Edit entry",
          "                 </a>",
          "                 <a href='' class='dropdown-item'>",
          "                  <i class='eos-icons eos-18'>remove_circle</i>",
          "                  Delete product",
          "                 </a>",
          "               </div>",
          "             </div>",
          "           </td>",
          "         </tr>",
          "      </tbody>",
          "  </table>",
          "</div>",
          "</div>",
          "<nav class='pagination-wrap margin-top-m justify-content-end' aria-label='Page navigation example'>",
          " <div class='pagination-count'>",
          "   Total <strong>93 items</strong>",
          " </div>",
          "  <ul class='pagination'>",
          "    <li class='page-item'><a class='page-link' href='#'>Prev</a></li>",
          "    <li class='page-item'><a class='page-link' href='#'>1</a></li>",
          "    <li class='page-item active'><a class='page-link' href='#'>2</a></li>",
          "    <li class='page-item'><a class='page-link' href='#'>3</a></li>",
          "    <li class='page-item'><a class='page-link' href='#'>4</a></li>",
          "    <li class='page-item'><a class='page-link' href='#'>Next</a></li>",
          "  </ul>",
          "  <div class='pagination-actions margin-right-m'>",
          "    <div class='goto-field'>",
          "      Go to",
          "      <input class='form-control' id='username' type='text'>",
          "    </div>",
          "    <div class='pagination-text'>",
          "      Items per page",
          "    </div>",
          "    <div class='dropdown'>",
          "      <button class='btn btn-sm btn-secondary dropdown-toggle' type='button' data-toggle='dropdown'>",
          "        <i class='eos-icons eos-18'>keyboard_arrow_down</i>",
          "        10",
          "      </button>",
          "      <div class='dropdown-menu' aria-labelledby='dropdownMenuButton'>",
          "        <a class='dropdown-item' href='#'>10</a>",
          "        <a class='dropdown-item' href='#'>25</a>",
          "        <a class='dropdown-item' href='#'>50</a>",
          "        <a class='dropdown-item' href='#'>100</a>",
          "      </div>",
          "    </div>",
          "  </div>",
          "</nav>"
        ]
      }
    ]
  }
]
