<?xml version="1.0" encoding="utf-8"?>
<!-- Generator: Adobe Illustrator 24.0.1, SVG Export Plug-In . SVG Version: 6.00 Build 0)  -->
<svg version="1.1" id="Layer_1" xmlns="http://www.w3.org/2000/svg" xmlns:xlink="http://www.w3.org/1999/xlink" x="0px" y="0px"
	 viewBox="0 0 24 24" style="enable-background:new 0 0 24 24;" xml:space="preserve">
<style type="text/css">
	.st0{fill:#141823;}
</style>
<title>suma_logo</title>
<path class="st0" d="M12,2C6.5,2,2,6.5,2,12s4.5,10,10,10s10-4.5,10-10S17.5,2,12,2z M15.1,11.5L14.2,12l-0.6-0.9l0.9-0.5L15.1,11.5
	z M10.5,16.5L8,18l-2.5-1.5v-3L8,12l2.5,1.5V16.5z M8.9,11.5l0.6-1l0.9,0.5l-0.6,1L8.9,11.5z M9.5,9.5v-3L12,5l2.5,1.5v3L12,11
	L9.5,9.5z M18.5,16.5L16,18l-2.5-1.5v-3L16,12l2.5,1.5V16.5z"/>
</svg>
