<?xml version="1.0" encoding="utf-8"?>
<!-- Generator: Adobe Illustrator 24.0.1, SVG Export Plug-In . SVG Version: 6.00 Build 0)  -->
<svg version="1.1" id="Layer_1" xmlns="http://www.w3.org/2000/svg" xmlns:xlink="http://www.w3.org/1999/xlink" x="0px" y="0px"
	 viewBox="0 0 24 24" style="enable-background:new 0 0 24 24;" xml:space="preserve">
<style type="text/css">
	.st0{fill:#141823;}
</style>
<title>saltstack</title>
<path class="st0" d="M11.1,7.6V4.5c0.8-0.2,1.6-0.3,2.3-0.2c1.6,0,3.3,0.5,4.6,1.4c1.3,1,2,2.5,2,4.1h-3.4c0-0.9-0.5-1.8-1.4-2.2
	c-0.7-0.3-1.4-0.4-2.1-0.4C12.4,7.1,11.7,7.3,11.1,7.6L11.1,7.6z M19.1,13.2c1,0.8,1.6,2.1,1.5,3.4c0,1.5-0.6,2.9-1.8,3.8
	c-1.5,1.1-3.2,1.6-5.1,1.5c-1.9,0.1-3.7-0.4-5.2-1.5c-1.3-1-2-2.5-1.9-4.1H10c0.1,0.6,0.3,1.2,0.6,1.7c0.8,0.8,1.9,1.1,3,1
	c0.7,0,1.4-0.1,2.1-0.3c0.9-0.2,1.5-1,1.5-2c0-0.5-0.3-1-0.7-1.3c-0.7-0.4-1.5-0.6-2.4-0.8l-1.8-0.4C11,14,9.7,13.5,8.6,12.9
	c-1.2-0.8-1.8-2.2-1.7-3.6c0-0.1,0-0.3,0-0.4h3.3c0,0.1,0,0.1,0,0.2c0,0.6,0.3,1.1,0.8,1.3c0.7,0.3,1.5,0.6,2.2,0.7l3,0.7
	C17.2,12.2,18.2,12.6,19.1,13.2L19.1,13.2z M4,6.5V2h4.4v4.5H4z"/>
</svg>
