<svg xmlns="http://www.w3.org/2000/svg" width="51.491" height="45.046" viewBox="0 0 51.491 45.046">
  <g id="Group_271" data-name="Group 271" transform="translate(-2151.086 -921.086)">
    <g id="Path_362" data-name="Path 362" transform="translate(2151.087 953.152)">
      <path id="Path_633" data-name="Path 633" d="M2201.356,976.265h-5.69a.8.8,0,0,1-.8-.8v-2.888h5.491a.859.859,0,0,0,0-1.717h-5.491v-2.843a.8.8,0,0,1,.8-.8h5.69a.9.9,0,0,0,0-1.8h-5.69a2.6,2.6,0,0,0-2.589,2.6v7.447a2.6,2.6,0,0,0,2.589,2.6h5.69a.9.9,0,0,0,0-1.8m-16.732-5.381a7.565,7.565,0,0,1-2.508-.773,1.378,1.378,0,0,1-.7-1.212,1.6,1.6,0,0,1,.722-1.345,3.414,3.414,0,0,1,2.033-.525,3.878,3.878,0,0,1,2.128.516,3.132,3.132,0,0,1,.783.738.969.969,0,0,0,1.359.182q.033-.025.063-.052a.984.984,0,0,0,.073-1.38,5.076,5.076,0,0,0-1.473-1.15,6.4,6.4,0,0,0-2.954-.63,6.106,6.106,0,0,0-2.592.516,4.01,4.01,0,0,0-1.7,1.393,3.4,3.4,0,0,0-.589,1.946,3.038,3.038,0,0,0,.465,1.717,3.472,3.472,0,0,0,1.491,1.183,11.843,11.843,0,0,0,2.759.8,7.9,7.9,0,0,1,2.422.744,1.259,1.259,0,0,1,.694,1.107,1.471,1.471,0,0,1-.77,1.327,4.062,4.062,0,0,1-2.118.468,4.836,4.836,0,0,1-2.385-.534,3.61,3.61,0,0,1-.982-.81.963.963,0,0,0-1.36-.088c-.018.016-.035.032-.052.049l0,0a.972.972,0,0,0-.047,1.33,6.153,6.153,0,0,0,4.848,1.822,7.045,7.045,0,0,0,2.614-.449,3.946,3.946,0,0,0,1.757-1.288,3.17,3.17,0,0,0,.627-1.947,3.094,3.094,0,0,0-.456-1.727,3.391,3.391,0,0,0-1.452-1.162,11.149,11.149,0,0,0-2.686-.773m-28.053,0a7.566,7.566,0,0,1-2.507-.773,1.38,1.38,0,0,1-.7-1.213,1.6,1.6,0,0,1,.722-1.345,3.413,3.413,0,0,1,2.032-.524,3.874,3.874,0,0,1,2.127.516,3.1,3.1,0,0,1,.783.739.971.971,0,0,0,1.361.18c.021-.017.042-.033.061-.052a.981.981,0,0,0,.073-1.38,5.083,5.083,0,0,0-1.473-1.151,6.4,6.4,0,0,0-2.954-.629,6.116,6.116,0,0,0-2.593.515,4.033,4.033,0,0,0-1.7,1.393,3.422,3.422,0,0,0-.588,1.946,3.045,3.045,0,0,0,.465,1.717,3.479,3.479,0,0,0,1.492,1.184,11.884,11.884,0,0,0,2.754.8,7.909,7.909,0,0,1,2.423.744,1.257,1.257,0,0,1,.692,1.107,1.47,1.47,0,0,1-.769,1.327,4.077,4.077,0,0,1-2.119.467,4.841,4.841,0,0,1-2.385-.534,3.6,3.6,0,0,1-.982-.81.964.964,0,0,0-1.361-.086c-.018.015-.035.032-.052.049h0a.975.975,0,0,0-.048,1.331,6.155,6.155,0,0,0,4.849,1.822,7.056,7.056,0,0,0,2.614-.448,3.936,3.936,0,0,0,1.758-1.289,3.16,3.16,0,0,0,.626-1.947,3.085,3.085,0,0,0-.456-1.727,3.392,3.392,0,0,0-1.452-1.162,11.149,11.149,0,0,0-2.687-.773m18.709-4.6v6.927a4.987,4.987,0,0,1-1.311,3.749,6.379,6.379,0,0,1-7.636,0,4.988,4.988,0,0,1-1.307-3.749v-6.927a1.025,1.025,0,0,1,2.051-.009v6.689a3.914,3.914,0,0,0,.751,2.644,3.613,3.613,0,0,0,4.653,0,3.914,3.914,0,0,0,.75-2.644v-6.68a1.026,1.026,0,1,1,2.052-.006v.006" transform="translate(-2151.088 -965.249)" fill="#fff" fill-rule="evenodd"/>
    </g>
    <g id="Path_363" data-name="Path 363" transform="translate(2151.086 921.086)">
      <path id="Path_634" data-name="Path 634" d="M2199.808,929.015a.818.818,0,0,0-1.156-.028l-.028.028a.848.848,0,0,0,.009,1.2.792.792,0,0,0,.123.1.835.835,0,0,0,.921,0,.85.85,0,0,0,.23-1.18.82.82,0,0,0-.1-.121m-1.083-2.865a3.116,3.116,0,1,0,2.31,2.323,3.116,3.116,0,0,0-2.31-2.323m-14.766,12.677a8.425,8.425,0,0,0-3.885-.408c-1.291.017-1.338-.028-2.812-.028-.455,0-.624,2.2,1.024,2.654a4.208,4.208,0,0,1,2.044.884c.24.248.375.62-.18.62h-4.089a2.771,2.771,0,0,1-1.938-.449,6.627,6.627,0,0,1-1.625-2.63,27.664,27.664,0,0,0-1.435-2.92,11.693,11.693,0,0,0-4.425-4.593,9.045,9.045,0,0,0-9.667.553c-3.388,2.62-2.662,7.525.3,9.925a6.082,6.082,0,0,0,4.2,1.256c2.93-.171,5.092-2.347,4.555-5.022a3.312,3.312,0,0,0-1.48-2.205,3.683,3.683,0,0,0-1.859-.445,2.719,2.719,0,0,0-1.925.627,1.814,1.814,0,0,0-.213,2.264c.26.375.684.69.613,1.178a.812.812,0,0,1-.644.648,1.561,1.561,0,0,1-1.423-.577,3.652,3.652,0,0,1-.726-3.831,4.547,4.547,0,0,1,4.381-2.522,6.352,6.352,0,0,1,5.427,3.73,7,7,0,0,1-.64,6.642c-2.9,4.262-10.05,3.759-13.374.164a10.468,10.468,0,0,1-3.059-8.519,11.8,11.8,0,0,1,3.866-7.712,26.2,26.2,0,0,1,12.535-6.435,28.085,28.085,0,0,1,8.5-.436,37.263,37.263,0,0,1,7.381,1.459,29.145,29.145,0,0,1,3.5,1.342,10.584,10.584,0,0,1,3.089,1.764c0-1.445-.056-3.034-.056-4.139a.58.58,0,0,1,.584-.577.591.591,0,0,1,.234.051c1.624.758,5.472,2.589,8.038,3.77,3.439,1.582,3.683,5.315,3.8,8.624a.444.444,0,0,1-.027.218c-.108.227-.687.166-.9.168-.411,0-1.032,0-1.442.02-.822.036-1.621.022-2.442-.02a6.925,6.925,0,0,1-3.969-1.584c-.1-.083-.416-.174-.566-.017a.394.394,0,0,0-.017.5,6.8,6.8,0,0,0,4.772,1.956,19.71,19.71,0,0,0,3.213-.062c.891-.091,1.122-.153.243.508a9.28,9.28,0,0,1-2.578,1.3,13.71,13.71,0,0,1-4.054.706,15.967,15.967,0,0,1-2.492-.129c-.427-.054-.851-.132-1.28-.176a3.411,3.411,0,0,0-1.056-.025,1.385,1.385,0,0,0-.8.5,2.5,2.5,0,0,0-.208,1.763,3.5,3.5,0,0,0,1.674,1.725c.763.456,1.766.612,1.96,1.486.04.183-1.581.188-1.765.184h-2.159a6.71,6.71,0,0,1-1.63-.139.188.188,0,0,1-.041-.018,1.216,1.216,0,0,1-.441-.726,4.487,4.487,0,0,0-.588-1.084,4.858,4.858,0,0,0-2.015-1.758m16.344-9.643a2.289,2.289,0,1,1-2.29-2.3,2.289,2.289,0,0,1,2.29,2.3" transform="translate(-2151.086 -921.086)" fill="#30ba78" fill-rule="evenodd"/>
    </g>
  </g>
</svg>
